\relax 
\catcode `"\active 
\citation{Ahmed2012}
\citation{Mohammadi2016}
\citation{Karaboga2005}
\select@language{brazil}
\@writefile{toc}{\select@language{brazil}}
\@writefile{lof}{\select@language{brazil}}
\@writefile{lot}{\select@language{brazil}}
\@writefile{toc}{\contentsline {section}{\numberline {1}Introdu\IeC {\c c}\IeC {\~a}o}{1}}
\citation{Karaboga2005}
\bibstyle{sbc}
\bibdata{sbc-template}
\bibcite{Ahmed2012}{Ahmed and Glasgow 2012}
\@writefile{toc}{\contentsline {section}{\numberline {2}Artificial Bee Colony}{2}}
\newlabel{sec:abc}{{2}{2}}
\@writefile{toc}{\contentsline {subsection}{\numberline {2.1}Algoritmo Original}{2}}
\newlabel{eq:upPos}{{1}{2}}
\bibcite{Karaboga2005}{Karaboga 2005}
\bibcite{Mohammadi2016}{Mohammadi and Zahiri 2016}
\@writefile{toc}{\contentsline {section}{\numberline {3}Metodologia}{3}}
\newlabel{sec:met}{{3}{3}}
\@writefile{toc}{\contentsline {section}{\numberline {4}resultados}{3}}
\newlabel{sec:res}{{4}{3}}
\@writefile{toc}{\contentsline {section}{\numberline {5}Conclus\IeC {\~a}o}{3}}
\newlabel{sec:conc}{{5}{3}}
